{
  "links": {
    "self": "http://localhost:8080/api/entity/v3_MyDataset"
  },
  "items": [
    {
      "links": {
        "self": "http://localhost:8080/api/entity/v3_MyDataset/6"
      },
      "data": {
        "myXref": {
          "links": {
            "self": "http://localhost:8080/api/entity/v3_MyNumbers/6"
          }
        },
        "myMref": {
          "links": {
            "self": "http://localhost:8080/api/entity/v3_MyDataset/6/myMref"
          },
          "items": [
            {
              "links": {
                "self": "http://localhost:8080/api/entity/v3_MyStrings/str1"
              },
              "data": {
                "id": "str1"
              }
            }
          ]
        },
        "id": 6,
        "label": "Row 6"
      }
    },
    {
      "links": {
        "self": "http://localhost:8080/api/entity/v3_MyDataset/7"
      },
      "data": {
        "myXref": {
          "links": {
            "self": "http://localhost:8080/api/entity/v3_MyNumbers/7"
          }
        },
        "myMref": {
          "links": {
            "self": "http://localhost:8080/api/entity/v3_MyDataset/7/myMref"
          },
          "items": [
            {
              "links": {
                "self": "http://localhost:8080/api/entity/v3_MyStrings/str1"
              },
              "data": {
                "id": "str1"
              }
            },
            {
              "links": {
                "self": "http://localhost:8080/api/entity/v3_MyStrings/str2"
              },
              "data": {
                "id": "str2"
              }
            },
            {
              "links": {
                "self": "http://localhost:8080/api/entity/v3_MyStrings/str3"
              },
              "data": {
                "id": "str3"
              }
            }
          ]
        },
        "id": 7,
        "label": "Row 7"
      }
    },
    {
      "links": {
        "self": "http://localhost:8080/api/entity/v3_MyDataset/8"
      },
      "data": {
        "myXref": {
          "links": {
            "self": "http://localhost:8080/api/entity/v3_MyNumbers/8"
          }
        },
        "myMref": {
          "links": {
            "self": "http://localhost:8080/api/entity/v3_MyDataset/8/myMref"
          },
          "items": [
            {
              "links": {
                "self": "http://localhost:8080/api/entity/v3_MyStrings/str1"
              },
              "data": {
                "id": "str1"
              }
            }
          ]
        },
        "id": 8,
        "label": "Row 8"
      }
    },
    {
      "links": {
        "self": "http://localhost:8080/api/entity/v3_MyDataset/9"
      },
      "data": {
        "myXref": {
          "links": {
            "self": "http://localhost:8080/api/entity/v3_MyNumbers/9"
          }
        },
        "myMref": {
          "links": {
            "self": "http://localhost:8080/api/entity/v3_MyDataset/9/myMref"
          },
          "items": [
            {
              "links": {
                "self": "http://localhost:8080/api/entity/v3_MyStrings/str1"
              },
              "data": {
                "id": "str1"
              }
            },
            {
              "links": {
                "self": "http://localhost:8080/api/entity/v3_MyStrings/str2"
              },
              "data": {
                "id": "str2"
              }
            },
            {
              "links": {
                "self": "http://localhost:8080/api/entity/v3_MyStrings/str3"
              },
              "data": {
                "id": "str3"
              }
            }
          ]
        },
        "id": 9,
        "label": "Row 9"
      }
    },
    {
      "links": {
        "self": "http://localhost:8080/api/entity/v3_MyDataset/10"
      },
      "data": {
        "myXref": {
          "links": {
            "self": "http://localhost:8080/api/entity/v3_MyNumbers/10"
          }
        },
        "myMref": {
          "links": {
            "self": "http://localhost:8080/api/entity/v3_MyDataset/10/myMref"
          },
          "items": [
            {
              "links": {
                "self": "http://localhost:8080/api/entity/v3_MyStrings/str1"
              },
              "data": {
                "id": "str1"
              }
            }
          ]
        },
        "id": 10,
        "label": "Row 10"
      }
    }
  ],
  "page": {
    "size": 5,
    "totalElements": 25,
    "totalPages": 5,
    "number": 1
  }
}